…
# set up coordinate to query for
coord <- c(6103057.45033481, 2027049.43985547)

x <- hecr::extract_ts2(f, xy = coord, ts_type = "Water Surface")

# tidy data
print(x3)
```

`hecr` uses the distance formula to locate the nearest cell centerpoint and 
reports output for that cell. The resulting tibble records the cell index that
was selected.

```
# A tibble: 481 x 5
              datetime          plan_name time_series_type hdf_cell_index           values
                <dttm>              <chr>            <chr>          <dbl>            <dbl>
 1 2005-12-30 00:00:00 ArdenwoodCreek.p50    Water Surface          18296 6.66271018981934
 2 2005-12-30 00:15:00 ArdenwoodCreek.p50    Water Surface          18296 6.66538572311401
 3 2005-12-30 00:30:00 ArdenwoodCreek.p50    Water Surface          18296 6.66436624526978
 4 2005-12-30 00:45:00 ArdenwoodCreek.p50    Water Surface          18296 6.65778636932373
 5 2005-12-30 01:00:00 ArdenwoodCreek.p50    Water Surface          18296 6.64651870727539
 6 2005-12-30 01:15:00 ArdenwoodCreek.p50    Water Surface          18296 6.63137197494507
 7 2005-12-30 01:30:00 ArdenwoodCreek.p50    Water Surface          18296 6.61756515502930
 8 2005-12-30 01:45:00 ArdenwoodCreek.p50    Water Surface          18296 6.60669612884521
 9 2005-12-30 02:00:00 ArdenwoodCreek.p50    Water Surface          18296 6.59691762924194
10 2005-12-30 02:15:00 ArdenwoodCreek.p50    Water Surface          18296 6.58782863616943
# ... with 471 more rows
```
…
