hecr Recipes • hecr
…
Putting it all together

We can now perform a basic query by the pieces explored above.

data <- 
  hec_one(model_data, station_name = cs[300], ts_type = "Water Surface")

print(data)

## # A tibble: 481 x 8
##    datetime            plan_id    plan_name    plan_file  cross_section_r…
##    <dttm>              <chr>      <chr>        <chr>      <chr>           
##  1 2005-12-30 00:00:00 Q100Arden… Q100Ardenwo… Ardenwood… Upstream        
##  2 2005-12-30 00:15:00 Q100Arden… Q100Ardenwo… Ardenwood… Upstream        
##  3 2005-12-30 00:30:00 Q100Arden… Q100Ardenwo… Ardenwood… Upstream        
##  4 2005-12-30 00:45:00 Q100Arden… Q100Ardenwo… Ardenwood… Upstream        
##  5 2005-12-30 01:00:00 Q100Arden… Q100Ardenwo… Ardenwood… Upstream        
##  6 2005-12-30 01:15:00 Q100Arden… Q100Ardenwo… Ardenwood… Upstream        
##  7 2005-12-30 01:30:00 Q100Arden… Q100Ardenwo… Ardenwood… Upstream        
##  8 2005-12-30 01:45:00 Q100Arden… Q100Ardenwo… Ardenwood… Upstream        
##  9 2005-12-30 02:00:00 Q100Arden… Q100Ardenwo… Ardenwood… Upstream        
## 10 2005-12-30 02:15:00 Q100Arden… Q100Ardenwo… Ardenwood… Upstream        
## # ... with 471 more rows, and 3 more variables: cross_section_river <chr>,
## #   station <chr>, values <dbl>
…
